create\040database\040UNIVERSITY;
show\040database
;
show\040databases;
use\040university;
use\040UNIVERSITY;
show\040table
;
show\040tables;
describe\040UNIVERSITY;
show\040tables;
CREATE\040TABLE\040students
(
id\040INT\040AUTO_INCREMENT,
first_name\040VARCHAR(255),
last_name\040VARCHAR(255),
age\040INT,
average\040INT,
PRIMARY\040KEY\040(id)
);
CREATE\040TABLE\040students\040(\040id\040INT\040AUTO_INCREMENT,\040first_name\040VARCHAR(255),\040last_name\040VARCHAR(255),\040age\040INT,\040average\040INT,\040PRIMARY\040KEY\040(id)\040);
show\040tables;
CREATE\040TABLE\040professors
(
id\040INT\040AUTO_INCREMENT,
first_name\040VARCHAR(255),
last_name\040VARCHAR(255),
date_of_birth\040DATE,
PRIMARY\040KEY\040(id)
);
CREATE\040TABLE\040professors\040(\040id\040INT\040AUTO_INCREMENT,\040first_name\040VARCHAR(255),\040last_name\040VARCHAR(255),\040date_of_birth\040DATE,\040PRIMARY\040KEY\040(id)\040);
CREATE\040TABLE\040assistens
(
id\040INT\040AUTO_INCREMENT,
first_name\040VARCHAR(255),
last_name\040VARCHAR(255),
date_of_birth\040DATE,
doctoral_study\040VARCHAR(2),
PRIMARY\040KEY\040(id)
);
CREATE\040TABLE\040assistens\040(\040id\040INT\040AUTO_INCREMENT,\040first_name\040VARCHAR(255),\040last_name\040VARCHAR(255),\040date_of_birth\040DATE,\040doctoral_study\040VARCHAR(2),\040PRIMARY\040KEY\040(id)\040);
show\040tables;
CREATE\040TABLE\040subjects
(
id\040INT\040AUTO_INCREMENT,
name_of_subject\040VARCHAR(255),
number_of_classes_per_semester\040INT,
grades\040VARCHAR(255),
FOREIGN\040KEY\040(student_id)\040REFERENCES\040students(id)
);
CREATE\040TABLE\040subjects\040(\040id\040INT\040AUTO_INCREMENT,\040name_of_subject\040VARCHAR(255),\040number_of_classes_per_semester\040INT,\040grades\040VARCHAR(255),\040FOREIGN\040KEY\040(student_id)\040REFERENCES\040students(id)\040);
drop\040students;
show\040tables;
drop\040table\040students;
CREATE\040TABLE\040subjects
(
id\040INT\040AUTO_INCREMENT,
name_of_subject\040VARCHAR(255),
number_of_classes_per_semester\040INT,
grades\040VARCHAR(255),
FOREIGN\040KEY\040(student_id)\040REFERENCES\040students(id)
);
CREATE\040TABLE\040subjects\040(\040id\040INT\040AUTO_INCREMENT,\040name_of_subject\040VARCHAR(255),\040number_of_classes_per_semester\040INT,\040grades\040VARCHAR(255),\040FOREIGN\040KEY\040(student_id)\040REFERENCES\040students(id)\040);
show\040tables;
CREATE\040TABLE\040students
(
id\040INT\040AUTO_INCREMENT,
first_name\040VARCHAR(255),
last_name\040VARCHAR(255),
age\040INT,
average\040INT,
PRIMARY\040KEY\040(id)
);
CREATE\040TABLE\040students\040(\040id\040INT\040AUTO_INCREMENT,\040first_name\040VARCHAR(255),\040last_name\040VARCHAR(255),\040age\040INT,\040average\040INT,\040PRIMARY\040KEY\040(id)\040);
show\040tables;
describe\040students;
SELECT\040*\040FROM\040dtudents;
SELECT\040*\040FROM\040students;
INSERT\040INTO\040students(first_name,last_name,age,average)\040VALUES('Erdzan','Sakirovski','32','8');
describe\040students;
show\040table\040students;
SELECT\040*\040FROM\040students;
INSERT\040INTO\040students(first_name,last_name,age,average)\040VALUES('Ljupco','Zoreski','CREATE\040TABLE\040subjects);
(
id\040INT\040AUTO_INCREMENT,
name_of_subject\040VARCHAR(255),
number_of_classes_per_semester\040INT,
grades\040VARCHAR(255),
FOREIGN\040KEY\040(student_id)\040REFERENCES\040students(id)
CREATE\040TABLE\040subjects
(
id\040INT\040AUTO_INCREMENT,
name_of_subject\040VARCHAR(255),
number_of_classes_per_semester\040INT,
grades\040VARCHAR(255),
FOREIGN\040KEY\040(student_id)\040REFERENCES\040students(id)
);
show\040tables;
exit
show\040databases;
use\040UNIVERSITY;
show\040tables;
CREATE\040TABLE\040subjects
(
id\040INT\040AUTO_INCREMENT,
name_of_subject\040VARCHAR(255),
number_of_classes_per_semester\040INT,
grades\040VARCHAR(255),
FOREIGN\040KEY\040(student_id)\040REFERENCES\040students(id)
);
CREATE\040TABLE\040subjects\040(\040id\040INT\040AUTO_INCREMENT,\040name_of_subject\040VARCHAR(255),\040number_of_classes_per_semester\040INT,\040grades\040VARCHAR(255),\040FOREIGN\040KEY\040(student_id)\040REFERENCES\040students(id)\040);
CREATE\040TABLE\040subjects
(
id\040INT\040AUTO_INCREMENT,
name_of_subject\040VARCHAR(255),
number_of_classes_per_semester\040INT,
grades\040VARCHAR(255),
student_id\040INT\040NOT\040NULL,
FOREIGN\040KEY\040(student_id)\040REFERENCES\040students(id)
);
CREATE\040TABLE\040subjects\040(\040id\040INT\040AUTO_INCREMENT,\040name_of_subject\040VARCHAR(255),\040number_of_classes_per_semester\040INT,\040grades\040VARCHAR(255),\040student_id\040INT\040NOT\040NULL,\040FOREIGN\040KEY\040(student_id)\040REFERENCES\040students(id)\040);
CREATE\040TABLE\040subjects
(
id\040INT\040AUTO_INCREMENT,
name_of_subject\040VARCHAR(255),
number_of_classes_per_semester\040INT,
grades\040VARCHAR(255),
PRIMARY\040KEY\040(id),
student_id\040INT\040NOT\040NULL,
FOREIGN\040KEY\040(student_id)\040REFERENCES\040students(id)
);
CREATE\040TABLE\040subjects\040(\040id\040INT\040AUTO_INCREMENT,\040name_of_subject\040VARCHAR(255),\040number_of_classes_per_semester\040INT,\040grades\040VARCHAR(255),\040PRIMARY\040KEY\040(id),\040student_id\040INT\040NOT\040NULL,\040FOREIGN\040KEY\040(student_id)\040REFERENCES\040students(id)\040);
show\040tables;
SELECT\040*\040FROM\040subject;
SELECT\040*\040FROM\040subjects;
show\040table\040subjects;
SELECT\040*\040FROM\040subjects;
describe\040subjects;
describe\040students;
SELECT\040*\040FROM\040students;
INSERT\040INTO\040students(first_name,Last_name,age,average)\040VALUES('Tilija','Popovska','28','9');
SELECT\040*\040FROM\040students;
INSERT\040INTO\040students(first_name,Last_name,age,average)\040VALUES('Ljupco','Zoreski','30','10');
INSERT\040INTO\040students(first_name,Last_name,age,average)\040VALUES('Dilaver','Alioski','30','7');
INSERT\040INTO\040students(first_name,Last_name,age,average)\040VALUES('Dime','Janevski','29','7');
INSERT\040INTO\040students(first_name,Last_name,age,average)\040VALUES('Viktor','Trajanovski','26','8');
SELECT\040*\040FROM\040students;
INSERT\040INTO\040professors(first_name,last_name,date_of_birth)\040VALUES('Sasha','Petreski','1992-07-03');
SELECT\040*\040FROM\040professors;
INSERT\040INTO\040professors(first_name,last_name,date_of_birth)\040VALUES('Frosina','Stamatoska','1990-12-06);
exit
show\040tables;
show\040databases;
use\040UNIVERSITY;
show\040databases;
show\040tables;
SELECT\040*\040FROM\040professors;
INSERT\040INTO\040(first_name,last_name,date_of_birth)\040VALUES('Frosina','Stamatoska','1990-10-06');
show\040databases;
show\040table\040professors;
show\040tables;
INSERT\040INTO\040(first_name,last_name,date_of_birth)\040VALUES('Frosina','Stamatoska','1990-10-06');
show\040databases;
show\040tables;
use\040UNIVERSITY;
show\040tables;
SELECT\040*\040FROM\040professors;
SELECT\040*\040FROM\040assistens;;
SELECT\040*\040FROM\040assistens;
INSERT\040INTO\040(first_name,last_name,date_of_birth,doctoral_study)\040VALUES('Angelina','Ugrinovska','1987-06-01','da');
INSERT\040INTO\040(first_name,last_name,date_of_birth,doctoral_study)\040VALUES('Dragana','Spasovska','1986-08015','da');
INSERT\040INTO\040(first_name,last_name,date_of_birth,doctoral_study)\040VALUES('Aleksandar','Trajkovski','1986-10-25','ne');
SELECT\040*\040FROM\040assistens;
INSERT\040INTO\040assistens(first_name,last_name,date_of_birth,doctoral_study)\040VALUES('Aleksandar','Trajkovski','1986-10-25','ne');
INSERT\040INTO\040assistens(first_name,last_name,date_of_birth,doctoral_study)\040VALUES('Dragana','Spasovska','1986-08015','da');
INSERT\040INTO\040assistens(first_name,last_name,date_of_birth,doctoral_study)\040VALUES('Angelina','Ugrinovska','1987-06-01','da');
SELECT\040*\040FROM\040assistens;
INSERT\040INTO\040assistens(first_name,last_name,date_of_birth,doctoral_study)\040VALUES('Dragana','Spasovska','1986-08015','da');
SELECT\040*\040FROM\040assistens;
INSERT\040INTO\040assistens(first_name,last_name,date_of_birth,doctoral_study)\040VALUES('Dragana','Spasovska','1986-08-15','da');
SELECT\040*\040FROM\040assistens;
SELECT\040*\040FROM\040students;
SELECT\040*\040FROM\040professors;
INSERT\040INTO\040subjects(name_of_subjects,number_of_classes_per_semesteclasses_per_semester,grades)\040VALUES('matematika','20','9');
INSERT\040INTO\040subjects(name_of_subject,number_of_classes_per_semesteclasses_per_semester,grades)\040VALUES('matematika','20','9');
INSERT\040INTO\040subjects(name_of_subject,number_of_classes_per_semester,grades)\040VALUES('matematika','20','9');
INSERT\040INTO\040subjects(name_of_subject,number_of_classes_per_semester,grades','student_id)\040VALUES('matematika','20','9','1');
exit
\040INSERT\040INTO\040subjects(name_of_subject,number_of_classes_per_semester,grades','student_id)\040VALUES('matematika','20','9','1');
INSERT\040INTO\040subjects(name_of_subjects,number_of_classes_per_semester,grades,student_id)\040VALUES('matematika','20','9','1');
use\040UNIVERSITY;
INSERT\040INTO\040subjects(name_of_subjects,number_of_classes_per_semester,grades,student_id)\040VALUES('matematika','20','9','1');
INSERT\040INTO\040subjects(name_of_subject,number_of_classes_per_semester,grades,student_id)\040VALUES('matematika','20','9','1');
INSERT\040INTO\040subjects(name_of_subject,number_of_classes_per_semester,grades,student_id)\040VALUES('makedonski','30','6','2');
INSERT\040INTO\040subjects(name_of_subject,number_of_classes_per_semester,grades,student_id)\040VALUES('biologija','25','10','3');
SELECT\040*\040FROM\040subjects;
SELECT\040*\040FROM\040students;
SELECT\040*\040FROM\040students\040WHERE\040average\040>'7';
SELECT\040*\040FROM\040professors;
alter\040table\040professors\040add\040column\040subject_id\040INT;
SELECT\040*\040FROM\040professors;
INSERT\040INTO\040professors(subject_id)\040VALUES('1');
SELECT\040*\040FROM\040professors;
DELETE\040from\040professors\040WHERE\040subject_id='1';
SELECT\040*\040FROM\040professors;
UPDATE\040professors\040SET\040subject_id='1'\040WHERE\040first_name='Sasha';
SELECT\040*\040FROM\040professors;
UPDATE\040professors\040SET\040subject_id='1'\040WHERE\040first_name='Aleksandar';
UPDATE\040professors\040SET\040subject_id='2'\040WHERE\040first_name='Frosina';
UPDATE\040professors\040SET\040subject_id='3'\040WHERE\040first_name='Aleksandar';
UPDATE\040professors\040SET\040subject_id='3'\040WHERE\040first_name='AnAntonio';
SELECT\040*\040FROM\040professors;
SELECT\040*\040FROM\040students\040WHERE\040subject_id='1';
SELECT\040*\040FROM\040professors\040WHERE\040subject_id='1';
SELECT\040*\040FROM\040subjects\040WHERE\040number_of_classes_per_semester='20';
SELECT\040*\040FROM\040assistens\040WHERE\040doctoral_study\040='da';
SELECT*FROM\040students;
UPDATE\040students\040SET\040age='33'\040\040WHERE\040average='8.65';
SELECT*FROM\040students;
SELECT\040*\040FROM\040professors;
DELETE\040from\040professors\040WHERE\040id='1';
SELECT\040*\040FROM\040professors;
alter\040table\040professors\040add\040column\040title\040VARCHAR(50);
SELECT\040*\040FROM\040professors;
UPDATE\040professors\040SET\040title='docent'\040WHERE\040first_name='AnAntonio';
UPDATE\040professors\040SET\040title='full\040profesor'\040WHERE\040first_name='Frosina';
UPDATE\040professors\040SET\040title='extraordinary\040professor'\040WHERE\040first_name='Aleksandar';
SELECT\040*\040FROM\040professors;
SELECT\040*\040FROM\040professors\040WHERE\040title='docent';
SELECT\040*\040FROM\040students;
